
./octez-client --protocol ProxfordZNRgFcnNcXRSN4rtHAMFpu4w7FNjyx49pjQVU6Ww4ef --mode mockup --no-base-dir-warnings run script michelson_test_scripts/opcodes/hash_string.tz on storage 0x00 and input '"abcdefg"' --level 1 --trace-stack
storage
  0x46fdbcb4ea4eadad5615cdaa17d67f783e01e21149ce2b27de497600b4cd8f4e
emitted operations
  
big_map diff
  
trace
  - location: 7 (just consumed gas: 4.949)
    [ (Pair "abcdefg" 0x00) ]
  - location: 7 (just consumed gas: 0.010)
    [ "abcdefg" ]
  - location: 8 (just consumed gas: 0.286)
    [ 0x05010000000761626364656667 ]
  - location: 9 (just consumed gas: 0.444)
    [ 0x46fdbcb4ea4eadad5615cdaa17d67f783e01e21149ce2b27de497600b4cd8f4e ]
  - location: 10 (just consumed gas: 0.010)
    [ {}
      0x46fdbcb4ea4eadad5615cdaa17d67f783e01e21149ce2b27de497600b4cd8f4e ]
  - location: 12 (just consumed gas: 0.010)
    [ (Pair {} 0x46fdbcb4ea4eadad5615cdaa17d67f783e01e21149ce2b27de497600b4cd8f4e) ]

