
./octez-client --protocol ProxfordZNRgFcnNcXRSN4rtHAMFpu4w7FNjyx49pjQVU6Ww4ef --mode mockup --no-base-dir-warnings run script michelson_test_scripts/opcodes/bls12_381_fr_push_bytes_not_padded.tz on storage None and input Unit --level 1 --trace-stack
storage
  (Some 0x0000000000000000000000000000000000000000000000000000000000000000)
emitted operations
  
big_map diff
  
trace
  - location: 8 (just consumed gas: 5.634)
    [ (Pair Unit None) ]
  - location: 8 (just consumed gas: 0.010)
    [  ]
  - location: 9 (just consumed gas: 0.010)
    [ 0x0000000000000000000000000000000000000000000000000000000000000000 ]
  - location: 12 (just consumed gas: 0.010)
    [ (Some 0x0000000000000000000000000000000000000000000000000000000000000000) ]
  - location: 13 (just consumed gas: 0.010)
    [ {}
      (Some 0x0000000000000000000000000000000000000000000000000000000000000000) ]
  - location: 15 (just consumed gas: 0.010)
    [ (Pair {}
            (Some 0x0000000000000000000000000000000000000000000000000000000000000000)) ]

