
./octez-client --protocol ProxfordZNRgFcnNcXRSN4rtHAMFpu4w7FNjyx49pjQVU6Ww4ef --mode mockup --no-base-dir-warnings run script michelson_test_scripts/opcodes/xor.tz on storage None and input 'Right (Pair 0 1)' --level 1 --trace-stack
storage
  (Some (Right 1))
emitted operations
  
big_map diff
  
trace
  - location: 16 (just consumed gas: 11.026)
    [ (Pair (Right (Pair 0 1)) None) ]
  - location: 16 (just consumed gas: 0.010)
    [ (Right (Pair 0 1)) ]
  - location: 17 (just consumed gas: 0)
    [ (Pair 0 1) ]
  - location: 24 (just consumed gas: 0.010)
    [ 0
      1 ]
  - location: 25 (just consumed gas: 0.035)
    [ 1 ]
  - location: 26 (just consumed gas: 0.010)
    [ (Right 1) ]
  - location: 17 (just consumed gas: 0.015)
    [ (Right 1) ]
  - location: 28 (just consumed gas: 0.010)
    [ (Some (Right 1)) ]
  - location: 29 (just consumed gas: 0.010)
    [ {}
      (Some (Right 1)) ]
  - location: 31 (just consumed gas: 0.010)
    [ (Pair {} (Some (Right 1))) ]

