
./octez-client --protocol ProxfordZNRgFcnNcXRSN4rtHAMFpu4w7FNjyx49pjQVU6Ww4ef --mode mockup --no-base-dir-warnings run script michelson_test_scripts/opcodes/not_binary.tz on storage None and input '(Right 0)' --level 1 --trace-stack
storage
  (Some -1)
emitted operations
  
big_map diff
  
trace
  - location: 10 (just consumed gas: 6.965)
    [ (Pair (Right 0) None) ]
  - location: 10 (just consumed gas: 0.010)
    [ (Right 0) ]
  - location: 11 (just consumed gas: 0)
    [ 0 ]
  - location: 15 (just consumed gas: 0.025)
    [ -1 ]
  - location: 11 (just consumed gas: 0.015)
    [ -1 ]
  - location: 16 (just consumed gas: 0.010)
    [ (Some -1) ]
  - location: 17 (just consumed gas: 0.010)
    [ {}
      (Some -1) ]
  - location: 19 (just consumed gas: 0.010)
    [ (Pair {} (Some -1)) ]

