
./octez-client --protocol ProxfordZNRgFcnNcXRSN4rtHAMFpu4w7FNjyx49pjQVU6Ww4ef --mode mockup --no-base-dir-warnings run script michelson_test_scripts/opcodes/or_binary.tz on storage None and input '(Pair 15 4)' --level 1 --trace-stack
storage
  (Some 15)
emitted operations
  
big_map diff
  
trace
  - location: 10 (just consumed gas: 6.141)
    [ (Pair (Pair 15 4) None) ]
  - location: 10 (just consumed gas: 0.010)
    [ (Pair 15 4) ]
  - location: 11 (just consumed gas: 0.010)
    [ 15
      4 ]
  - location: 12 (just consumed gas: 0.035)
    [ 15 ]
  - location: 13 (just consumed gas: 0.010)
    [ (Some 15) ]
  - location: 14 (just consumed gas: 0.010)
    [ {}
      (Some 15) ]
  - location: 16 (just consumed gas: 0.010)
    [ (Pair {} (Some 15)) ]

