
./octez-client --protocol ProxfordZNRgFcnNcXRSN4rtHAMFpu4w7FNjyx49pjQVU6Ww4ef --mode mockup --no-base-dir-warnings run script michelson_test_scripts/opcodes/get_and_update_map.tz on storage '(Pair None { Elt "hello" 4 })' and input '"hello"' --level 1 --trace-stack
storage
  (Pair (Some 4) {})
emitted operations
  
big_map diff
  
trace
  - location: 13 (just consumed gas: 8.333)
    [ (Pair "hello" None { Elt "hello" 4 }) ]
  - location: 13 (just consumed gas: 0.010)
    [ "hello"
      (Pair None { Elt "hello" 4 }) ]
  - location: 14 (just consumed gas: 0)
    [ (Pair None { Elt "hello" 4 }) ]
  - location: 16 (just consumed gas: 0.010)
    [ None
      { Elt "hello" 4 } ]
  - location: 14 (just consumed gas: 0.025)
    [ "hello"
      None
      { Elt "hello" 4 } ]
  - location: 17 (just consumed gas: 0.110)
    [ (Some 4)
      {} ]
  - location: 18 (just consumed gas: 0.010)
    [ (Pair (Some 4) {}) ]
  - location: 19 (just consumed gas: 0.010)
    [ {}
      (Pair (Some 4) {}) ]
  - location: 21 (just consumed gas: 0.010)
    [ (Pair {} (Some 4) {}) ]

