
./octez-client --protocol ProxfordZNRgFcnNcXRSN4rtHAMFpu4w7FNjyx49pjQVU6Ww4ef --mode mockup --no-base-dir-warnings run script michelson_test_scripts/opcodes/cons.tz on storage '{ 10 }' and input -5 --level 1 --trace-stack
storage
  { -5 ; 10 }
emitted operations
  
big_map diff
  
trace
  - location: 8 (just consumed gas: 4.660)
    [ (Pair -5 { 10 }) ]
  - location: 8 (just consumed gas: 0.010)
    [ -5
      { 10 } ]
  - location: 9 (just consumed gas: 0.010)
    [ { -5 ; 10 } ]
  - location: 10 (just consumed gas: 0.010)
    [ {}
      { -5 ; 10 } ]
  - location: 12 (just consumed gas: 0.010)
    [ (Pair {} { -5 ; 10 }) ]

