
./octez-client --protocol ProxfordZNRgFcnNcXRSN4rtHAMFpu4w7FNjyx49pjQVU6Ww4ef --mode mockup --no-base-dir-warnings run script michelson_test_scripts/opcodes/ediv.tz on storage '(Pair None None None None)' and input '(Pair 10 0)' --level 1 --trace-stack
storage
  (Pair None None None None)
emitted operations
  
big_map diff
  
trace
  - location: 25 (just consumed gas: 25.562)
    [ (Pair (Pair 10 0) None None None None) ]
  - location: 25 (just consumed gas: 0.010)
    [ (Pair 10 0) ]
  - location: 26 (just consumed gas: 0.010)
    [ (Pair 10 0)
      (Pair 10 0) ]
  - location: 27 (just consumed gas: 0.010)
    [ 10
      0
      (Pair 10 0) ]
  - location: 28 (just consumed gas: 0.020)
    [ 10
      0
      (Pair 10 0) ]
  - location: 29 (just consumed gas: 0)
    [ 0
      (Pair 10 0) ]
  - location: 31 (just consumed gas: 0.020)
    [ 0
      (Pair 10 0) ]
  - location: 29 (just consumed gas: 0.025)
    [ 10
      0
      (Pair 10 0) ]
  - location: 32 (just consumed gas: 0.163)
    [ None
      (Pair 10 0) ]
  - location: 33 (just consumed gas: 0.010)
    [ (Pair 10 0)
      None ]
  - location: 34 (just consumed gas: 0.010)
    [ (Pair 10 0)
      (Pair 10 0)
      None ]
  - location: 35 (just consumed gas: 0.010)
    [ 10
      0
      (Pair 10 0)
      None ]
  - location: 36 (just consumed gas: 0.020)
    [ 10
      0
      (Pair 10 0)
      None ]
  - location: 37 (just consumed gas: 0.163)
    [ None
      (Pair 10 0)
      None ]
  - location: 38 (just consumed gas: 0.010)
    [ (Pair 10 0)
      None
      None ]
  - location: 39 (just consumed gas: 0.010)
    [ (Pair 10 0)
      (Pair 10 0)
      None
      None ]
  - location: 40 (just consumed gas: 0.010)
    [ 10
      0
      (Pair 10 0)
      None
      None ]
  - location: 41 (just consumed gas: 0)
    [ 0
      (Pair 10 0)
      None
      None ]
  - location: 43 (just consumed gas: 0.020)
    [ 0
      (Pair 10 0)
      None
      None ]
  - location: 41 (just consumed gas: 0.025)
    [ 10
      0
      (Pair 10 0)
      None
      None ]
  - location: 44 (just consumed gas: 0.163)
    [ None
      (Pair 10 0)
      None
      None ]
  - location: 45 (just consumed gas: 0.010)
    [ (Pair 10 0)
      None
      None
      None ]
  - location: 46 (just consumed gas: 0.010)
    [ 10
      0
      None
      None
      None ]
  - location: 47 (just consumed gas: 0.163)
    [ None
      None
      None
      None ]
  - location: 49 (just consumed gas: 0)
    [ None
      None ]
  - location: 52 (just consumed gas: 0.010)
    [ (Pair None None) ]
  - location: 49 (just consumed gas: 0.025)
    [ None
      (Pair None None) ]
  - location: 49 (just consumed gas: 0.010)
    [ None
      None
      (Pair None None) ]
  - location: 49 (just consumed gas: 0)
    [ None
      None
      (Pair None None) ]
  - location: 53 (just consumed gas: 0)
    [ None
      (Pair None None) ]
  - location: 55 (just consumed gas: 0.010)
    [ (Pair None None None) ]
  - location: 53 (just consumed gas: 0.025)
    [ None
      (Pair None None None) ]
  - location: 56 (just consumed gas: 0.010)
    [ (Pair None None None None) ]
  - location: 57 (just consumed gas: 0.010)
    [ {}
      (Pair None None None None) ]
  - location: 59 (just consumed gas: 0.010)
    [ (Pair {} None None None None) ]

