
./octez-client --protocol ProxfordZNRgFcnNcXRSN4rtHAMFpu4w7FNjyx49pjQVU6Ww4ef --mode mockup --no-base-dir-warnings run script michelson_test_scripts/opcodes/list_id_map.tz on storage '{""}' and input '{ "a" ; "b" ; "c" }' --level 1 --trace-stack
storage
  { "a" ; "b" ; "c" }
emitted operations
  
big_map diff
  
trace
  - location: 9 (just consumed gas: 5.447)
    [ (Pair { "a" ; "b" ; "c" } { "" }) ]
  - location: 9 (just consumed gas: 0.010)
    [ { "a" ; "b" ; "c" } ]
  - location: 10 (just consumed gas: 0)
    [ "a" ]
  - location: 10 (just consumed gas: 0.015)
    [ "b" ]
  - location: 10 (just consumed gas: 0.015)
    [ "c" ]
  - location: 10 (just consumed gas: 0.015)
    [ { "a" ; "b" ; "c" } ]
  - location: 12 (just consumed gas: 0.010)
    [ {}
      { "a" ; "b" ; "c" } ]
  - location: 14 (just consumed gas: 0.010)
    [ (Pair {} { "a" ; "b" ; "c" }) ]

