
./octez-client --protocol ProxfordZNRgFcnNcXRSN4rtHAMFpu4w7FNjyx49pjQVU6Ww4ef --mode mockup --no-base-dir-warnings run script michelson_test_scripts/opcodes/and.tz on storage None and input '(Pair True False)' --level 1 --trace-stack
storage
  (Some False)
emitted operations
  
big_map diff
  
trace
  - location: 10 (just consumed gas: 7.572)
    [ (Pair (Pair True False) None) ]
  - location: 10 (just consumed gas: 0.010)
    [ (Pair True False) ]
  - location: 11 (just consumed gas: 0.010)
    [ True
      False ]
  - location: 12 (just consumed gas: 0.010)
    [ False ]
  - location: 13 (just consumed gas: 0.010)
    [ (Some False) ]
  - location: 14 (just consumed gas: 0.010)
    [ {}
      (Some False) ]
  - location: 16 (just consumed gas: 0.010)
    [ (Pair {} (Some False)) ]
  - location: 17 (just consumed gas: 0.010)
    [ {}
      (Some False) ]
  - location: 18 (just consumed gas: 0.010)
    [ (Pair {} (Some False)) ]

