
./octez-client --protocol ProxfordZNRgFcnNcXRSN4rtHAMFpu4w7FNjyx49pjQVU6Ww4ef --mode mockup --no-base-dir-warnings run script michelson_test_scripts/opcodes/lsr_bytes_016.tz on storage Unit and input Unit --level 1 --trace-stack
storage
  Unit
emitted operations
  
big_map diff
  
trace
  - location: 7 (just consumed gas: 52.069)
    [ (Pair Unit Unit) ]
  - location: 7 (just consumed gas: 0.010)
    [  ]
  - location: 8 (just consumed gas: 0.010)
    [ 1 ]
  - location: 11 (just consumed gas: 0.010)
    [ 0x06
      1 ]
  - location: 14 (just consumed gas: 0.055)
    [ 0x03 ]
  - location: 15 (just consumed gas: 0.010)
    [ 0x03
      0x03 ]
  - location: 20 (just consumed gas: 0.035)
    [ 0 ]
  - location: 21 (just consumed gas: 0.010)
    [ True ]
  - location: 22 (just consumed gas: 0)
    [  ]
  - location: 22 (just consumed gas: 0.015)
    [  ]
  - location: 28 (just consumed gas: 0.010)
    [ 8 ]
  - location: 31 (just consumed gas: 0.010)
    [ 0x06
      8 ]
  - location: 34 (just consumed gas: 0.055)
    [ 0x ]
  - location: 35 (just consumed gas: 0.010)
    [ 0x
      0x ]
  - location: 40 (just consumed gas: 0.035)
    [ 0 ]
  - location: 41 (just consumed gas: 0.010)
    [ True ]
  - location: 42 (just consumed gas: 0)
    [  ]
  - location: 42 (just consumed gas: 0.015)
    [  ]
  - location: 48 (just consumed gas: 0.010)
    [ 1 ]
  - location: 51 (just consumed gas: 0.010)
    [ 0x0006
      1 ]
  - location: 54 (just consumed gas: 0.056)
    [ 0x0003 ]
  - location: 55 (just consumed gas: 0.010)
    [ 0x0003
      0x0003 ]
  - location: 60 (just consumed gas: 0.035)
    [ 0 ]
  - location: 61 (just consumed gas: 0.010)
    [ True ]
  - location: 62 (just consumed gas: 0)
    [  ]
  - location: 62 (just consumed gas: 0.015)
    [  ]
  - location: 68 (just consumed gas: 0.010)
    [ 8 ]
  - location: 71 (just consumed gas: 0.010)
    [ 0x0006
      8 ]
  - location: 74 (just consumed gas: 0.055)
    [ 0x00 ]
  - location: 75 (just consumed gas: 0.010)
    [ 0x00
      0x00 ]
  - location: 80 (just consumed gas: 0.035)
    [ 0 ]
  - location: 81 (just consumed gas: 0.010)
    [ True ]
  - location: 82 (just consumed gas: 0)
    [  ]
  - location: 82 (just consumed gas: 0.015)
    [  ]
  - location: 88 (just consumed gas: 0.010)
    [ 0 ]
  - location: 91 (just consumed gas: 0.010)
    [ 0x001234
      0 ]
  - location: 94 (just consumed gas: 0.056)
    [ 0x001234 ]
  - location: 95 (just consumed gas: 0.010)
    [ 0x001234
      0x001234 ]
  - location: 100 (just consumed gas: 0.035)
    [ 0 ]
  - location: 101 (just consumed gas: 0.010)
    [ True ]
  - location: 102 (just consumed gas: 0)
    [  ]
  - location: 102 (just consumed gas: 0.015)
    [  ]
  - location: 108 (just consumed gas: 0.010)
    [ 30 ]
  - location: 111 (just consumed gas: 0.010)
    [ 0x001234
      30 ]
  - location: 114 (just consumed gas: 0.055)
    [ 0x ]
  - location: 115 (just consumed gas: 0.010)
    [ 0x
      0x ]
  - location: 120 (just consumed gas: 0.035)
    [ 0 ]
  - location: 121 (just consumed gas: 0.010)
    [ True ]
  - location: 122 (just consumed gas: 0)
    [  ]
  - location: 122 (just consumed gas: 0.015)
    [  ]
  - location: 128 (just consumed gas: 0.010)
    [ Unit ]
  - location: 129 (just consumed gas: 0.010)
    [ {}
      Unit ]
  - location: 131 (just consumed gas: 0.010)
    [ (Pair {} Unit) ]

