
./octez-client --protocol ProxfordZNRgFcnNcXRSN4rtHAMFpu4w7FNjyx49pjQVU6Ww4ef --mode mockup --no-base-dir-warnings run script michelson_test_scripts/opcodes/ediv.tz on storage '(Pair None None None None)' and input '(Pair 10 -3)' --level 1 --trace-stack
storage
  (Pair (Some (Pair -3 1)) (Some (Pair 3 1)) (Some (Pair -3 1)) (Some (Pair 3 1)))
emitted operations
  
big_map diff
  
trace
  - location: 25 (just consumed gas: 25.562)
    [ (Pair (Pair 10 -3) None None None None) ]
  - location: 25 (just consumed gas: 0.010)
    [ (Pair 10 -3) ]
  - location: 26 (just consumed gas: 0.010)
    [ (Pair 10 -3)
      (Pair 10 -3) ]
  - location: 27 (just consumed gas: 0.010)
    [ 10
      -3
      (Pair 10 -3) ]
  - location: 28 (just consumed gas: 0.020)
    [ 10
      -3
      (Pair 10 -3) ]
  - location: 29 (just consumed gas: 0)
    [ -3
      (Pair 10 -3) ]
  - location: 31 (just consumed gas: 0.020)
    [ 3
      (Pair 10 -3) ]
  - location: 29 (just consumed gas: 0.025)
    [ 10
      3
      (Pair 10 -3) ]
  - location: 32 (just consumed gas: 0.151)
    [ (Some (Pair 3 1))
      (Pair 10 -3) ]
  - location: 33 (just consumed gas: 0.010)
    [ (Pair 10 -3)
      (Some (Pair 3 1)) ]
  - location: 34 (just consumed gas: 0.010)
    [ (Pair 10 -3)
      (Pair 10 -3)
      (Some (Pair 3 1)) ]
  - location: 35 (just consumed gas: 0.010)
    [ 10
      -3
      (Pair 10 -3)
      (Some (Pair 3 1)) ]
  - location: 36 (just consumed gas: 0.020)
    [ 10
      -3
      (Pair 10 -3)
      (Some (Pair 3 1)) ]
  - location: 37 (just consumed gas: 0.151)
    [ (Some (Pair -3 1))
      (Pair 10 -3)
      (Some (Pair 3 1)) ]
  - location: 38 (just consumed gas: 0.010)
    [ (Pair 10 -3)
      (Some (Pair -3 1))
      (Some (Pair 3 1)) ]
  - location: 39 (just consumed gas: 0.010)
    [ (Pair 10 -3)
      (Pair 10 -3)
      (Some (Pair -3 1))
      (Some (Pair 3 1)) ]
  - location: 40 (just consumed gas: 0.010)
    [ 10
      -3
      (Pair 10 -3)
      (Some (Pair -3 1))
      (Some (Pair 3 1)) ]
  - location: 41 (just consumed gas: 0)
    [ -3
      (Pair 10 -3)
      (Some (Pair -3 1))
      (Some (Pair 3 1)) ]
  - location: 43 (just consumed gas: 0.020)
    [ 3
      (Pair 10 -3)
      (Some (Pair -3 1))
      (Some (Pair 3 1)) ]
  - location: 41 (just consumed gas: 0.025)
    [ 10
      3
      (Pair 10 -3)
      (Some (Pair -3 1))
      (Some (Pair 3 1)) ]
  - location: 44 (just consumed gas: 0.151)
    [ (Some (Pair 3 1))
      (Pair 10 -3)
      (Some (Pair -3 1))
      (Some (Pair 3 1)) ]
  - location: 45 (just consumed gas: 0.010)
    [ (Pair 10 -3)
      (Some (Pair 3 1))
      (Some (Pair -3 1))
      (Some (Pair 3 1)) ]
  - location: 46 (just consumed gas: 0.010)
    [ 10
      -3
      (Some (Pair 3 1))
      (Some (Pair -3 1))
      (Some (Pair 3 1)) ]
  - location: 47 (just consumed gas: 0.151)
    [ (Some (Pair -3 1))
      (Some (Pair 3 1))
      (Some (Pair -3 1))
      (Some (Pair 3 1)) ]
  - location: 49 (just consumed gas: 0)
    [ (Some (Pair -3 1))
      (Some (Pair 3 1)) ]
  - location: 52 (just consumed gas: 0.010)
    [ (Pair (Some (Pair -3 1)) (Some (Pair 3 1))) ]
  - location: 49 (just consumed gas: 0.025)
    [ (Some (Pair 3 1))
      (Pair (Some (Pair -3 1)) (Some (Pair 3 1))) ]
  - location: 49 (just consumed gas: 0.010)
    [ (Some (Pair -3 1))
      (Some (Pair 3 1))
      (Pair (Some (Pair -3 1)) (Some (Pair 3 1))) ]
  - location: 49 (just consumed gas: 0)
    [ (Some (Pair -3 1))
      (Some (Pair 3 1))
      (Pair (Some (Pair -3 1)) (Some (Pair 3 1))) ]
  - location: 53 (just consumed gas: 0)
    [ (Some (Pair 3 1))
      (Pair (Some (Pair -3 1)) (Some (Pair 3 1))) ]
  - location: 55 (just consumed gas: 0.010)
    [ (Pair (Some (Pair 3 1)) (Some (Pair -3 1)) (Some (Pair 3 1))) ]
  - location: 53 (just consumed gas: 0.025)
    [ (Some (Pair -3 1))
      (Pair (Some (Pair 3 1)) (Some (Pair -3 1)) (Some (Pair 3 1))) ]
  - location: 56 (just consumed gas: 0.010)
    [ (Pair (Some (Pair -3 1)) (Some (Pair 3 1)) (Some (Pair -3 1)) (Some (Pair 3 1))) ]
  - location: 57 (just consumed gas: 0.010)
    [ {}
      (Pair (Some (Pair -3 1)) (Some (Pair 3 1)) (Some (Pair -3 1)) (Some (Pair 3 1))) ]
  - location: 59 (just consumed gas: 0.010)
    [ (Pair {} (Some (Pair -3 1)) (Some (Pair 3 1)) (Some (Pair -3 1)) (Some (Pair 3 1))) ]

